# Blender v2.69 (sub 0) OBJ File: ''
# www.blender.org
mtllib model_cube02.mtl
o Cube
v  0.250000 -0.250000 -0.250000
v  0.250000 -0.250000  0.250000
v -0.250000 -0.250000  0.250000
v -0.250000 -0.250000 -0.250000
v  0.250000  0.250000 -0.250000
v  0.250000  0.250000  0.250000
v -0.250000  0.250000  0.250000
v -0.250000  0.250000 -0.250000
usemtl Green
s on
f 1 2 3 4
f 5 8 7 6
f 1 5 6 2
f 2 6 7 3
f 3 7 8 4
f 5 1 4 8
