# Blender v2.76 (sub 0) OBJ File: 'FourTriangles.blend'
# www.blender.org
mtllib model_cube01.mtl
o Cone
v  0.0 -0.25 -0.50
v  0.0  0.25  0.00
v  0.5 -0.25  0.25
v -0.5 -0.25  0.25
s on
usemtl Green
f 3 2 4
usemtl Blue
f 4 2 1
usemtl Red
f 1 2 3
usemtl Purple
f 1 3 4

